…
  final <- bind_rows(calc_diffs(first, second),
            calc_diffs(second, first)) %>% 
    arrange(match_id)
  print(final)
  
}

spi_matches_tidy <- comb_home_away(home_teams, away_teams)
```

```
## # A tibble: 41,758 x 34
##    match_id date       league league_id team  opp_team  home score
##       <int> <date>     <chr>      <int> <chr> <chr>    <dbl> <int>
##  1        1 2016-08-12 Frenc…      1843 Bast… Paris S…     1     0
##  2        1 2016-08-12 Frenc…      1843 Pari… Bastia       0     1
##  3        2 2016-08-12 Frenc…      1843 AS M… Guingamp     1     2
##  4        2 2016-08-12 Frenc…      1843 Guin… AS Mona…     0     2
##  5        3 2016-08-13 Barcl…      2411 Hull… Leicest…     1     2
##  6        3 2016-08-13 Barcl…      2411 Leic… Hull Ci…     0     1
##  7        4 2016-08-13 Barcl…      2411 Burn… Swansea…     1     0
##  8        4 2016-08-13 Barcl…      2411 Swan… Burnley      0     1
##  9        5 2016-08-13 Barcl…      2411 Midd… Stoke C…     1     1
## 10        5 2016-08-13 Barcl…      2411 Stok… Middles…     0     1
## # ... with 41,748 more rows, and 26 more variables: opp_score <int>,
## #   diff_score <int>, match_result <chr>, match_points <dbl>, prob <dbl>,
## #   opp_prob <dbl>, prob_tie <dbl>, diff_prob <dbl>, spi <dbl>,
## #   opp_spi <dbl>, diff_spi <dbl>, proj_score <dbl>, opp_proj_score <dbl>,
## #   diff_proj_score <dbl>, importance <dbl>, opp_importance <dbl>,
## #   diff_importance <dbl>, xg <dbl>, opp_xg <dbl>, diff_xg <dbl>,
## #   nsxg <dbl>, opp_nsxg <dbl>, diff_nsxg <dbl>, adj_score <dbl>,
## #   opp_adj_score <dbl>, diff_adj_score <dbl>
```
…
